Grouped Date Classes • grates
…
We make working with <grates_yearweek> and other grouped date objects easier by adopting logical conventions:

dates <- as.Date("2021-01-01") + 0:30
weeks <- as_yearweek(dates, firstday = 5) # firstday = 5 to match first day of year
head(weeks, 8)
#> <grates_yearweek[8]>
#> [1] 2021-W01 2021-W01 2021-W01 2021-W01 2021-W01 2021-W01 2021-W01 2021-W02
str(weeks)
#>  yrwk [1:31] 2021-W01, 2021-W01, 2021-W01, 2021-W01, 2021-W01, 2021-W01, 20...
#>  @ firstday: int 5
dat <- tibble(dates, weeks)

# addition of wholenumbers will add the corresponding number of weeks to the object
mutate(dat, plus4 = weeks + 4)
#> # A tibble: 31 × 3
#>    dates         weeks    plus4
#>    <date>       <yrwk>   <yrwk>
#>  1 2021-01-01 2021-W01 2021-W05
#>  2 2021-01-02 2021-W01 2021-W05
#>  3 2021-01-03 2021-W01 2021-W05
#>  4 2021-01-04 2021-W01 2021-W05
#>  5 2021-01-05 2021-W01 2021-W05
#>  6 2021-01-06 2021-W01 2021-W05
#>  7 2021-01-07 2021-W01 2021-W05
#>  8 2021-01-08 2021-W02 2021-W06
#>  9 2021-01-09 2021-W02 2021-W06
#> 10 2021-01-10 2021-W02 2021-W06
#> # … with 21 more rows

# addition of two yearweek objects will error as it is unclear what the intention is
mutate(dat, addweeks = weeks + weeks)
#> Error in `mutate()`:
#> ! Problem while computing `addweeks = weeks + weeks`.
#> Caused by error in `vec_arith()`:
#> ! <grates_yearweek> + <grates_yearweek> is not permitted

# Subtraction of wholenumbers works similarly to addition
mutate(dat, minus4 = weeks - 4)
#> # A tibble: 31 × 3
#>    dates         weeks   minus4
#>    <date>       <yrwk>   <yrwk>
#>  1 2021-01-01 2021-W01 2020-W49
#>  2 2021-01-02 2021-W01 2020-W49
#>  3 2021-01-03 2021-W01 2020-W49
#>  4 2021-01-04 2021-W01 2020-W49
#>  5 2021-01-05 2021-W01 2020-W49
#>  6 2021-01-06 2021-W01 2020-W49
#>  7 2021-01-07 2021-W01 2020-W49
#>  8 2021-01-08 2021-W02 2020-W50
#>  9 2021-01-09 2021-W02 2020-W50
#> 10 2021-01-10 2021-W02 2020-W50
#> # … with 21 more rows

# Subtraction of two yearweek objects gives the difference in weeks between them
mutate(dat, plus4 = weeks + 4, difference = plus4 - weeks)
#> # A tibble: 31 × 4
#>    dates         weeks    plus4 difference
#>    <date>       <yrwk>   <yrwk>      <int>
#>  1 2021-01-01 2021-W01 2021-W05          4
#>  2 2021-01-02 2021-W01 2021-W05          4
#>  3 2021-01-03 2021-W01 2021-W05          4
#>  4 2021-01-04 2021-W01 2021-W05          4
#>  5 2021-01-05 2021-W01 2021-W05          4
#>  6 2021-01-06 2021-W01 2021-W05          4
#>  7 2021-01-07 2021-W01 2021-W05          4
#>  8 2021-01-08 2021-W02 2021-W06          4
#>  9 2021-01-09 2021-W02 2021-W06          4
#> 10 2021-01-10 2021-W02 2021-W06          4
#> # … with 21 more rows
…
